Barplot_Sid_Sym_C
…
# save plot
ggsave("Sid_Symbiont_C_DEG_barplot.pdf", plot = plot.combo,  width = 5, height = 4, units = "in", dpi = 1200) #width = 6.5, height = 4.5

with low pH vs.ambient pH pairwise contrasts that do not have comparative site contrast

OO_RC OO_LC

summary3 <- rbind(summary_DEG_1, summary_DEG_2, summary_DEG_3, summary_DEG_4, summary_DEG_5, summary_DEG_6, summary_DEG_7, summary_DEG_8, summary_DEG_9, summary_DEG_10, summary_DEG_11)

summary3

## # A tibble: 22 x 3
##    group LFC       n
##    <fct> <fct> <int>
##  1 OC-LC Down    -10
##  2 OC-LC Up        3
##  3 OC-RC Down  -5439
##  4 OC-RC Up      197
##  5 LC-RC Down  -2831
##  6 LC-RC Up      183
##  7 OO-LO Down     -9
##  8 OO-LO Up       63
##  9 LO-RO Down    -91
## 10 LO-RO Up      136
## #  with 12 more rows

summary3$Destination <- c("Control", "Control", "Control", "Control", "Control", "Control", "Ojo", "Ojo", "Ojo", "Ojo", "Ojo", "Ojo", "Ojo vs. Control", "Ojo vs. Control", "Ojo vs. Control", "Ojo vs. Control", "Ojo vs. Control", "Ojo vs. Control", "Low vs. Ambient pH", "Low vs. Ambient pH", "Low vs. Ambient pH", "Low vs. Ambient pH")

summary3$Destination <- as.factor(summary3$Destination)
summary3$Destination <- factor(summary3$Destination, levels = c("Control", "Ojo", "Ojo vs. Control", "Low vs. Ambient pH"))

summary3

## # A tibble: 22 x 4
##    group LFC       n Destination
##    <fct> <fct> <int> <fct>      
##  1 OC-LC Down    -10 Control    
##  2 OC-LC Up        3 Control    
##  3 OC-RC Down  -5439 Control    
##  4 OC-RC Up      197 Control    
##  5 LC-RC Down  -2831 Control    
##  6 LC-RC Up      183 Control    
##  7 OO-LO Down     -9 Ojo        
##  8 OO-LO Up       63 Ojo        
##  9 LO-RO Down    -91 Ojo        
## 10 LO-RO Up      136 Ojo        
## #  with 12 more rows
…
