Barplot_Sid_Host
…
# save plot
ggsave("Sid_Host_DEG_barplot.pdf", plot = plot.combo,  width = 5, height = 4, units = "in", dpi = 1200) #width = 6.5, height = 4.5

with low pH vs.ambient pH pairwise contrasts that do not have comparative site contrast

OO_RC OO_LC

summary3 <- rbind(summary_DEG_1, summary_DEG_2, summary_DEG_3, summary_DEG_4, summary_DEG_5, summary_DEG_6, summary_DEG_7, summary_DEG_8, summary_DEG_9, summary_DEG_10, summary_DEG_11)

summary3

## # A tibble: 22 x 3
##    group LFC       n
##    <fct> <fct> <dbl>
##  1 OC-LC Down     -1
##  2 OC-LC Up        0
##  3 OC-RC Down   -522
##  4 OC-RC Up      169
##  5 LC-RC Down   -437
##  6 LC-RC Up      138
##  7 OO-LO Up        2
##  8 OO-LO Down      0
##  9 LO-RO Down   -184
## 10 LO-RO Up      174
## #  with 12 more rows

summary3$Destination <- c("Control", "Control", "Control", "Control", "Control", "Control", "Ojo", "Ojo", "Ojo", "Ojo", "Ojo", "Ojo", "Ojo vs. Control", "Ojo vs. Control", "Ojo vs. Control", "Ojo vs. Control", "Ojo vs. Control", "Ojo vs. Control", "Low vs. Ambient pH", "Low vs. Ambient pH", "Low vs. Ambient pH", "Low vs. Ambient pH")

summary3$Destination <- as.factor(summary3$Destination)
summary3$Destination <- factor(summary3$Destination, levels = c("Control", "Ojo", "Ojo vs. Control", "Low vs. Ambient pH"))

summary3

## # A tibble: 22 x 4
##    group LFC       n Destination
##    <fct> <fct> <dbl> <fct>      
##  1 OC-LC Down     -1 Control    
##  2 OC-LC Up        0 Control    
##  3 OC-RC Down   -522 Control    
##  4 OC-RC Up      169 Control    
##  5 LC-RC Down   -437 Control    
##  6 LC-RC Up      138 Control    
##  7 OO-LO Up        2 Ojo        
##  8 OO-LO Down      0 Ojo        
##  9 LO-RO Down   -184 Ojo        
## 10 LO-RO Up      174 Ojo        
## #  with 12 more rows
…
